001	…!?　な、何だ、アイツは…!?<br>あれは、アルヴァレスなのか…!?	QE02_4_3_08_b_3d.logi_story0204_0027
002	おいおい、あまりに趣味が悪過ぎるぜ…<br>そんなんじゃ、女にモテやしねぇぞ？	QE02_4_3_08_b_3d.edgar_story0204_0073
003	…クク…	QE02_4_3_08_b_3d.alvarez_story0204_0032
004	…!?<br>…よけろ!!	QE02_4_3_08_b_3d.logi_story0204_0028
005	ガッ…!!　ガハッ…!!	QE02_4_3_08_b_3d.edgar_story0204_0074
006	エドガー!!	QE02_4_3_08_b_3d.logi_story0204_0029
007	さらばだ…<br>世界の終わりを、あの世で眺めているがいい	QE02_4_3_08_b_3d.alvarez_story0204_0033
008	…こ…ここまで来て…<br>…これで…終わり…か…よ…	QE02_4_3_08_b_3d.edgar_story0204_0075