﻿001	いっちょ…あがりっと!!!
002	怪我はないか？	VO_kouga.kouga_sys_0001
003	…
004	そいつはよかった!!
005	礼は、言わんぞ	VO_kaede.kaede_sys_0002
006	そんなものいらねえよ<br>…お、こいつは割と上物だな	VO_kouga.kouga_sys_0007
007	…何を？	VO_kaede.kaede_sys_0025
008	言っただろ、料理人だって<br>こいつらの食べられそうなところ<br>解体してんだよ	VO_kouga.kouga_sys_0004
009	奪った命は美味しくいただくべきだ<br>割といけるんだぞ、魔物料理
010	…………
011	…っ！	VO_kaede.kaede_battle_0019
012	お前、腹空かせてんのか!!<br>ちょっと待ってろ、今何か作ってやる!!	VO_kouga.kouga_sys_0002
013	いや、そんなんじゃ…	VO_kaede.kaede_sys_0016
014	何言ってんだよ、そんな豪快に腹鳴らして！	VO_kouga.kouga_sys_0016
015	…お前	VO_kaede.kaede_sys_0012
016	おっと、俺を喰おうとすんなよ!!<br>まずは、俺の料理を食ってくれ<br>話はそれからだ	VO_kouga.kouga_sys_0006
017	…私を<br>…鬼だと知って？
018	そんな立派なツノ生やしてりゃ、<br>誰でもわかるだろ<br>とりあえずウチに来な	VO_kouga.kouga_sys_0031
019	食べることは、生きることだ<br>美味いって、絶対言わせてやっからさ！	VO_kouga.kouga_sys_0007
020	誰が行くもの…か…	VO_kaede.kaede_sys_0029
021	いいから、来いって	VO_kouga.kouga_sys_0001
022	…………!!
023	…!?
040	触るな…！<br>ぐ、来る…	VO_kaede.kaede_battle_0022
041	何が…え？<br>大丈夫か…？
042	寄る、な…<br>後悔する…ことに、なるぞ…
043	だからってお前…<br>おい！	VO_kouga.kouga_sys_0016
024	人間が…私に!!	VO_kaede.kaede_favorite_0001
025	触るなあああああああっ!!!!	VO_kaede.kaede_favorite_0002
026	…来る、来るぞ!!
027	…何が<br>…え？
028	…後悔するのだな<br>余計なことをしなければ…お前は<br>命を落とさずに…済んだ、と…	VO_kaede.kaede_sys_0010
029	おい…？	VO_kouga.kouga_sys_0012
030	…………
031	!!	VO_kouga.kouga_sys_0025
032	…オオ、オオオオオ!!
033	オオオオオオオオオオオオオオッ!!!!	VO_kaede.kaede_sys_0032
034	わわわわわわわわっ!!<br>ちょ、待っ…!!!
035	げ、なんて力だよ…!!<br>地面えぐれてんじゃねえか…!!	VO_kouga.kouga_sys_0027
036	…オオオ、オオオオオオオ……
037	ちょ、ちょい待ち!!<br>俺はお前に危害を加えるつもりなんて…	VO_kouga.kouga_sys_0026
038	…参ったな<br>そんなに暴れるほど腹減ってんのか…<br>だったらしょうがねえ!!	VO_kouga.kouga_sys_0030
039	まずは俺の料理を食ってから…ってな！
