﻿001	……………!!	VO_kouga.kouga_sys_0025
002	……………
003	タンバ…カエデ…？
004	コウガ…
005	…あんた何してんだ…!!<br>カエデを担いで…どうするつもりだ…？	VO_kouga.kouga_sys_0012
006	お前には関係なイ
007	関係ないわけねえだろ！	VO_kouga.kouga_sys_0013
008	此奴をどうしようと、儂の勝手ヨ
009	どうして………<br>カエデは、<br>お前の大事な妹なんじゃねえのかよ！
010	………………
011	…………!!<br>お前、カエデを！	VO_kouga.kouga_sys_0025
012	ふム…まだ馴染むにはかかるようだネ
013	まあいいサ<br>…どのみちヌシらは死ぬ運命ヨ
014	まあ、ヌシには礼を言わねばならぬナ<br>良い仕事を、してくれたヨ
015	…この太刀筋…振る舞い…<br>…お前…タンバじゃないな…	VO_kouga.kouga_sys_0012
016	…………
017	冥土の土産に教えてやろうカ<br>儂は…“王”の器を手にし者<br>…いわば…
018	“鬼王”也ヤ
019	“鬼王”…だって…？	VO_kouga.kouga_sys_0025
020	“鬼王”と成るには、タンバは優しすぎタ<br>“王”の器を持つとはいえ、持つだけでは<br>“王”には至らヌ
021	…どういうことだ	VO_kouga.kouga_sys_0001
022	信じた者に裏切られル…<br>その絶望こそが鬼本来の力を<br>より高みへと昇華する鍵ヨ
023	……………!!
024	人の感情を捨て、鬼としての覚悟を<br>持った“稀血種”…それこそが<br>“鬼王”たる資格というわけダ
025	なるほど…道理でタンバと太刀筋が<br>違うわけだ…下衆な企みのもと、タンバは<br>身体を乗っ取られちまったってわけか	VO_kouga.kouga_sys_0021
026	ほウ？
027	…なんでてめえが<br>タンバの身体を弄んでいやがる…!!	VO_kouga.kouga_sys_0012
028	なあ…神鬼さんよ………!!!
029	ふ…わかるかネ
030	なんなんだよ…タンバはどうなったんだ…！	VO_kouga.kouga_sys_0022
031	ヌシの言う通り、儂がタンバの身体を<br>乗っ取ったのサ…その結果、奴の意識が<br>どうなったかハ…儂の預かり知らぬことヨ
032	弱き“王”は必要なイ<br>ならば儂が、このワダツミを統べル<br>この、“王”の肉体を持ってして…ナ
033	てめえ…!!	VO_kouga.kouga_sys_0025
034	ヌシがタンバを絶望に追い込み、<br>“王”の誕生を後押ししてくれタ<br>…感謝するヨ
035	…予想通りダ<br>順調のようだネ<br>…この機を、逃すわけにはいかヌ
036	…
037	…………
038	――――――――――!!!!!!
039	…………!!!
040	覚醒の瞬間…それこそが唯一の隙なのサ<br>タンバの意識が一瞬失われ、“器”は空…<br>そこに潜り込んだというわけヨ
041	…賭けではあったガ…<br>うまくいっタ
042	許さねえ…!!	VO_kouga.kouga_sys_0022
043	ヌシがタンバの絶望の発端であることは事実<br>…自分の蒔いた種だろウ？<br>元“鬼狩り”としてナ
044	…!?<br>お前がどうしてそれを…？	VO_kouga.kouga_sys_0025
045	ヌシが知ることではなイ
046	………………!!	VO_kouga.kouga_battle_0022
047	フラフラじゃないかネ<br>…そうカ…食料にチャクラを入れて<br>いるのだったナ…無駄なことヲ
048	無駄になんか…ならねえ！！
049	タンバは返してもらうぜ<br>そしててめえのくだらねえ企みごと…<br>この俺がぶっ潰してやらあ!!	VO_kouga.kouga_sys_0012
050	ようやく…鬼と人間が<br>手を取り合えたってのに…!!<br>ここでもとに戻るわけにはいかねえんだ!!
051	和睦を結んだのも、すべてはこの時の為<br>…ヌシは、偽りの和睦に踊らされただけヨ
052	そんなこと知るかよ!!	VO_kouga.kouga_sys_0010
053	てめえの勝手な理屈で、<br>この平和を崩すわけにはいかねえ<br>…俺は、タンバにもカエデにも誓ったんだ
054	この和睦は偽りなんかじゃねえ!!<br>…てめえを倒して…タンバを取り戻す!!
055	兄さん…コウガ…？	VO_kaede.kaede_sys_0025
056	………カエデ………!!	VO_kouga.kouga_sys_0025
057	…まだ生きていたカ
058	…………!!!!
059	……………!!?<br>…コウ…ガ…？	VO_kaede.kaede_sys_0026
060	……………
061	……バカな男ヨ<br>やはり、理解に苦しム
062	…うる…せえ…	VO_kouga.kouga_sys_0022
063	…なんだ………これは………
064	…なんなんだこれはああぁぁっ…………!!!	VO_kaede.kaede_sys_0028
065	…カエ…デ…
066	…………!!<br>コウガ……!!	VO_kaede.kaede_sys_0018
067	…コウガ…どうして…!!
068	…へへ…タンバと約束したからよ…<br>…お前を…不幸にしねえって…	VO_kouga.kouga_sys_0011
069	…お前の大事な兄さんを…守ろうと<br>思ったんだけどよ…力が入らなくてな…<br>すまねえ…カエデ	VO_kouga.kouga_sys_0035
070	それは…どういう…!!
071	…!?<br>お前…兄さんじゃ…ない…？	VO_kaede.kaede_sys_0020
072	左様
073	…この感じ…まさか…神鬼…！<br>どうして…どうしてこんな…!!	VO_kaede.kaede_sys_0021
074	すべては儂の描いた絵図面通りということサ
075	…そんな…!!	VO_kaede.kaede_sys_0022
076	…泣くな、カエデ	VO_kouga.kouga_sys_0001
077	…泣いてなどいない	VO_kaede.kaede_sys_0027
078	お前こそ寝ている場合じゃないだろう<br>お前の料理を待っている奴が<br>たくさんいるんだ	VO_kaede.kaede_sys_0002
079	…へへへ…そうだな…<br>…カエデ…どこだ…？<br>…そこにいるのか…？	VO_kouga.kouga_sys_0011
080	ここにいる…！<br>しっかりしろ、コウガ…!!<br>私を置いていくなど…許さないぞ!!	VO_kaede.kaede_sys_0018
081	ああ…こりゃあダメかもな…<br>…もう…包丁握る力もねえや…	VO_kouga.kouga_sys_0031
082	……!!!<br>コウガ…!!!!<br>…本当に…勝手な奴だよお前は…
083	勝手にバカやって、<br>勝手に理想を掲げて、<br>勝手にその気にさせといて…!!	VO_kaede.kaede_sys_0027
084	ダメだとか<br>…そんな簡単に言うなあっ!!!!!<br>このバカ者が!!!!!!
085	…バカだって…知ってんだろ？<br>…ああ…もっとたくさん俺の料理<br>食わせてやりたかったな…	VO_kouga.kouga_sys_0011
086	違うだろ!!<br>こういう時にお前が決まっていう言葉は…
087	“まずは俺の料理を<br>食ってくれ話はそれからだ”…だろ!?
088	だってまだ私“美味い”って言ってない！<br>だから…勝手に行くな…!!	VO_kaede.kaede_battle_0019
089	…すまねえな…	VO_kouga.kouga_sys_0035
090	謝るんじゃない!!!<br>それじゃ…まるで…!!!!!
091	…そんなに興奮するなって<br>…最期に…暴れられちゃかなわねえからよ	VO_kouga.kouga_sys_0001
092	………!!<br>この…バカ者が…!!	VO_kaede.kaede_sys_0018
093	…大丈夫だ…<br>死んでも…終わりじゃねえ…
094	…命は…繋がっていくんだからよ…！
095	…コウガ…
096	…ありがとな、カエデ	VO_kouga.kouga_sys_0034
097	コウガ…コウガ…!!!!!
098	死んだカ…人とは脆いものよナ<br>さテ…
099	………………!!!
100	せっかく食事が目の前にあるのダ<br>食べない道理はないネ…ああ…<br>人間はこういう時にこう言うのだったネ
101	…いただきまス
102	――――っ!!!!!!!!<br>――――――――!!!!!!!!!!	VO_kaede.kaede_battle_0025
103	抵抗は無駄だヨ<br>ヌシもすぐに死ぬのだからネ
104	…許さない…よくもコウガを…!!!	VO_kaede.kaede_battle_0019
105	…何を怒ることがあるのかネ<br>ただの肉片となった今、誰かの<br>糧になるほうがよほど幸せだろウ
106	それとも、伴侶の死を無駄に<br>終わらせるとでも言うのかネ？
107	……………無駄？
108	左様<br>命が繋がるほうが、<br>人間は喜ぶのであろウ？
109	…………喜ぶわけがない	VO_kaede.kaede_sys_0027
110	繋げるってのは…その者の意志であり<br>生きてきた時間そのもの…<br>コウガは、私にそれを教えてくれた…
111	それが理解できないお前に!!<br>コウガの意志を繋げることができるものか!!
112	………？
113	…………………………………
114	……っ…!!<br>…うえ……ぇぇぇっ…!!!	VO_kaede.kaede_sys_0029
115	…何ヲ…
116	…………うええええええっ……………!!<br>…おえええええっ……………!!!	VO_kaede.kaede_sys_0027
117	…………………………<br>………いただきます…………!!
118	…………うっ………………	VO_kaede.kaede_sys_0018
119	…うう…う…うう…………
120	ヌシ…人間ヲ…!?
121	…うう…ううううううううう………!!	VO_kaede.kaede_sys_0019
122	…俺がもし、死ぬようなことがあったらよ<br>お前が、俺を喰ってくれねえか	VO_kouga.kouga_sys_0001
123	…食うってのは、命を繋げることで<br>俺がもし、何も成せずに死ぬのなら…	VO_kouga.kouga_sys_0031
124	お前に繋げたいなって
125	…どうして…殺したの…<br>…どうして…奪ったの…<br>…私は…	VO_kaede.kaede_battle_0019
126	“普通”に生きたかっただけなのに…!!!
127	コウガの命は、<br>コウガの意志は…私が繋げる…!!!	VO_kaede.kaede_sys_0018
128	…“ごちそうさま”…！	VO_kaede.kaede_favorite_0007
129	…これハ…!!
130	ああ…コウガ…お前もバカだったけど、<br>私も…とんでもない大バカだったよ…	VO_kaede.kaede_sys_0029
131	だって…今更気づいたんだ
132	当たり前にあった、あの食事
133	当たり前にあった、お前の顔
134	当たり前にあった、あの日常
135	失って、気づいた<br>私は…幸せだったんだと!!	VO_kaede.kaede_sys_0027
136	そしてやはり、失ってから気づいた
137	お前の作る料理は全部…<br>“美味しかった”!!!!	VO_kaede.kaede_sys_0018
138	…伝えられなかった私を許してくれ	VO_kaede.kaede_sys_0035
139	だが…このまま<br>終わらせるわけにはいかない…!!
140	ヌシに何ができル？<br>鬼であることを捨てたヌシが、<br>この身体を手に入れた儂に敵う道理など…
141	道理など関係ない…!!	VO_kaede.kaede_sys_0010
142	無駄なことだというのが<br>なぜわからないのかネ？
143	…無駄じゃない<br>コウガの死を無駄にしない為にも<br>…お前を倒し、兄さんを取り戻す	VO_kaede.kaede_sys_0039
144	そして…この和睦を守り抜く<br>それこそが、コウガの意志を継ぐ<br>私が為すべきこと…!!
145	…なるほど<br>人間を喰ったおかげで鬼としての<br>力を取り戻したというわけか…だガ…
146	それでは、足りヌ
147	大人しく、死ぬがよイ<br>もはや鬼ではないヌシに用はなイ<br>儂が作るのは鬼の国…
148	人間などただのひとりもいらぬのだからナ
149	…………<br>人だとか、鬼だとか…関係ない	VO_kaede.kaede_sys_0002
150	誰であろうと奪わずに生きていける…<br>そんな国を理想として、<br>コウガは戦ったんだから
151	奪わずになど生きてはいけぬのヨ
152	…兄さんの体を奪って、<br>私からコウガを奪って…<br>これ以上何を奪おうというの…！	VO_kaede.kaede_sys_0027
153	この国
154	…………
155	これ以上、奪わせない…!!	VO_kaede.kaede_battle_0030
156	…………!?
157	…来る!!
158	なんだト…??
159	私が私じゃなくなってもいい<br>…コウガが描いた未来を守れるのなら	VO_kaede.kaede_sys_0029
160	私が私じゃなくなってもいい<br>…兄さんが、戻ってきてくれるなら
161	なんだ…この力ハ!?
162	兄さんは絶望した…だけどそれは、<br>強く強く信じたがゆえ。だったら私は…<br>もう一度兄さんを信じさせてみせる	VO_kaede.kaede_sys_0027
163	人間は、信ずるに値するのだと
164	バカバカしイ…!!
165	そう…そんなバカを信じるのも悪くない	VO_kaede.kaede_sys_0010
166	私はそれを、コウガから教わったんだ…!!<br>…………
174	…………!?
175	言ったでしょう、これ以上…<br>何も…奪わせ…ないっ…て…	VO_kaede.kaede_battle_0019
167	…？<br>眠っタ…<br>いや、これハ…
168	…オオオ、オオオオオオ
169	!?
170	オオオオオオオオオオオオオオッ!!!
171	…グ!!<br>なんだ…<br>これハ…!!
172	オオオオオオオオオオオーーーッ!!!!
173	…………!!!
