﻿001	ん……<br>ここは…	VO_amane.amane_sys_0031
002	!!<br>…何も見えぬ、これは!?	VO_amane.amane_sys_0042
003	目が覚めたかネ	VO_ogre.ogre_battle_0001
004	どこだここは！<br>拙者にいったい何をしようと…!?	VO_amane.amane_battle_0022
005	すべてを知る必要はなイ<br>あえて言うならバ…	VO_ogre.ogre_battle_0019
006	ヌシの中に居る者に――用があるのだヨ	VO_ogre.ogre_battle_0002
007	――!!!!<br>お主たちは、いったい何をしようと…？
008	人を滅ぼシ、鬼の国を作ル<br>それだけのことサ	VO_ogre.ogre_battle_0001
009	準備…完了…シマシタ<br>…サア、指ヲ
010	…!?
011	これからヌシの中に居る者とヌシを、<br>“分離”すル	VO_ogre.ogre_battle_0003
012	!!!!?<br>お主、その指で…<br>拙者をどうするつもりだ…!?	VO_amane.amane_sys_0025
013	なあに、直接ヌシの頭の中を<br>探らせてもらおうかと…ネ	VO_ogre.ogre_battle_0001
014	ヌシは死ぬかもしれんが…<br>その時はその時よナ	VO_ogre.ogre_battle_0002
015	あ…あ…!!	VO_amane.amane_sys_0027
016	さあ…始めようカ	VO_ogre.ogre_battle_0001
017	…………!!
018	やめろおおおおおおおーーーーっ!!!!	VO_amane.amane_sys_0028
